…
## Response [https://www.health-ni.gov.uk/sites/default/files/publications/health/doh-dd-280122.xlsx]
##   Date: 2022-01-30 21:33
##   Status: 200
##   Content-Type: application/vnd.openxmlformats-officedocument.spreadsheetml.sheet
##   Size: 3.14 MB
## <ON DISK>  C:\Users\JOEYOB~1\AppData\Local\Temp\Rtmp2V42oQ\file4a6871c01034.xlsx

Now we have a connection to the latest version of the spreadsheet stored in the variable xls_file (thanks to the httr package). Generally we use .csv files when interacting with smaller tabular files, however in this case it is actually an xlsx file and such it has sheets. Fortunately the readxl packages allows us to read directly from a given sheet by providing its name (we’ll look at the Summary Tests sheet) as follows

test_df <- read_excel(xls_file, sheet = "Summary Tests")
test_df

## # A tibble: 730 x 7
##    Sample_Date         `TOTAL TESTS` `INDIVIDUALS TESTED PO~ `ALL INDIVIDUALS T~
##    <dttm>                      <dbl>                   <dbl>               <dbl>
##  1 2020-01-05 00:00:00             3                       0                   0
##  2 2020-01-07 00:00:00             1                       0                   0
##  3 2020-01-11 00:00:00             1                       0                   0
##  4 2020-01-16 00:00:00             2                       0                   0
##  5 2020-01-18 00:00:00             2                       0                   0
##  6 2020-01-21 00:00:00             1                       0                   0
##  7 2020-01-22 00:00:00             1                       0                   0
##  8 2020-01-25 00:00:00             1                       0                   0
##  9 2020-01-27 00:00:00             1                       0                   0
## 10 2020-01-31 00:00:00             1                       0                   0
## # ... with 720 more rows, and 3 more variables:
## #   ROLLING 7 DAY POSITIVE TESTS <dbl>, ROLLING 7 DAY INDIVIDUALS TESTED <dbl>,
## #   POSITIVITY RATE PER 100K POP <dbl>
…
test_df %>%
  clean_names() %>%
    select(date = sample_date,
           cases = individuals_tested_positive,
           tests = all_individuals_tested,
           cases_per_100k = positivity_rate_per_100k_pop
    ) %>%
    pad('day') %>%
    mutate_if(is.numeric, funs(ifelse(is.na(.), 0, .))) %>%
    filter(date >= '2020-03-05')

## # A tibble: 694 x 4
##    date                cases tests cases_per_100k
##    <dttm>              <dbl> <dbl>          <dbl>
##  1 2020-03-05 00:00:00     2    18          0.106
##  2 2020-03-06 00:00:00     2    14          0.106
##  3 2020-03-07 00:00:00     5    14          0.264
##  4 2020-03-08 00:00:00     3    18          0.158
##  5 2020-03-09 00:00:00     3    35          0.158
##  6 2020-03-10 00:00:00     5    92          0.264
##  7 2020-03-11 00:00:00    11    91          0.581
##  8 2020-03-12 00:00:00     4    72          0.211
##  9 2020-03-13 00:00:00    11    78          0.581
## 10 2020-03-14 00:00:00    10    62          0.528
## # ... with 684 more rows
…
